{
	"type" : [
		{
			"rus" : "Екскурсия",
			"type" : "exursion",
			"model" : "exursion"
		},
		{	
			"rus" : "Деловая",
			"type" : "bussines",
			"model" : "bussines"
		},
		{	
			"rus" : "Квест",
			"type" : "quest",
			"model" : "quest"
		},
		{	
			"rus" : "Рыбалка",
			"type" : "fishing",
			"model" : "fishing"
		}
	],
	"country" : [
		{
			"rus" : "Украина",
			"type" : "ukraine",
			"model" : "ukraine"
		}, 
		{
			"rus" : "США",
			"type" : "USA",
			"model" : "USA"
		}
	],
	"days" : 3,
	"total" : 12,
	"perPage" : 9,
	"loadItemCol" : 3
}