{
	"tours" :[ 
			{
				"tourId" : 1,
				"name" : "Свой остров на Мальдивах", 
				"img" : "../images/content/tour1.png",
				"days" : 3,
				"night" : 2,
				"place" : "Нью Йорк-Вашингтон",
				"type" : ["fishing","bussines"],
				"country" : "Ukraine"
			},
			{
				"tourId" : 2,
				"name" : "Свой остров на Мальдивах", 
				"img" : "../images/content/tour1.png",
				"days" : 3,
				"night" : 2,
				"place" : "Нью Йорк-Вашингтон",
				"type" : ["fishing","bussines"],
				"country" : "Ukraine"
			},
			{
				"tourId" : 2,
				"name" : "Свой остров на Мальдивах", 
				"img" : "../images/content/tour1.png",
				"days" : 3,
				"night" : 2,
				"place" : "Нью Йорк-Вашингтон",
				"type" : ["fishing","bussines"],
				"country" : "Ukraine"
			},
			{
				"tourId" : 2,
				"name" : "Свой остров на Мальдивах", 
				"img" : "../images/content/tour1.png",
				"days" : 3,
				"night" : 2,
				"place" : "Нью Йорк-Вашингтон",
				"type" : ["fishing","bussines"],
				"country" : "Ukraine"
			},
			{
				"tourId" : 2,
				"name" : "Свой остров на Мальдивах", 
				"img" : "../images/content/tour1.png",
				"days" : 3,
				"night" : 2,
				"place" : "Нью Йорк-Вашингтон",
				"type" : ["fishing","bussines"],
				"country" : "Ukraine"
			},
			{
				"tourId" : 2,
				"name" : "Свой остров на Мальдивах", 
				"img" : "../images/content/tour1.png",
				"days" : 3,
				"night" : 2,
				"place" : "Нью Йорк-Вашингтон",
				"type" : ["fishing","bussines"],
				"country" : "Ukraine"
			},
			{
				"tourId" : 2,
				"name" : "Свой остров на Мальдивах", 
				"img" : "../images/content/tour1.png",
				"days" : 3,
				"night" : 2,
				"place" : "Нью Йорк-Вашингтон",
				"type" : ["fishing","bussines"],
				"country" : "Ukraine"
			},
			{
				"tourId" : 2,
				"name" : "Свой остров на Мальдивах", 
				"img" : "../images/content/tour1.png",
				"days" : 3,
				"night" : 2,
				"place" : "Нью Йорк-Вашингтон",
				"type" : ["fishing","bussines"],
				"country" : "Ukraine"
			},
			{
				"tourId" : 2,
				"name" : "Свой остров на Мальдивах", 
				"img" : "../images/content/tour1.png",
				"days" : 3,
				"night" : 2,
				"place" : "Нью Йорк-Вашингтон",
				"type" : ["fishing","bussines"],
				"country" : "Ukraine"
			},
			{
				"tourId" : 2,
				"name" : "Свой остров на Мальдивах", 
				"img" : "../images/content/tour1.png",
				"days" : 3,
				"night" : 2,
				"place" : "Нью Йорк-Вашингтон",
				"type" : ["fishing","bussines"],
				"country" : "Ukraine"
			},
			{
				"tourId" : 2,
				"name" : "Свой остров на Мальдивах", 
				"img" : "../images/content/tour1.png",
				"days" : 3,
				"night" : 2,
				"place" : "Нью Йорк-Вашингтон",
				"type" : ["fishing","bussines"],
				"country" : "Ukraine"
			},
			{
				"tourId" : 3,
				"name" : "Свой остров на Мальдивах", 
				"img" : "../images/content/tour1.png",
				"days" : 3,
				"night" : 2,
				"place" : "Нью Йорк-Вашингтон",
				"type" : ["fishing","bussines"],
				"country" : "Ukraine"
			}
	],
	"state" :
		{
			"length" : 12,
			"showOnpage" : 6,
			"filter" : {
				"bussines" : "true",
				"quest" : "true"
			}
		}
}	
